Hubris/DebugProgram/assemble/signal_debug.vcd
$date
	Fri May 10 16:54:46 2024
$end
$version
	Icarus Verilog
$end
$timescale
	1s
$end
$scope module HubrisTest_RunProgram_tb $end
$var wire 8 ! io_output_data [7:0] $end
$var wire 32 " io_buffer_size_avai [31:0] $end
$var wire 1 # halt $end
$var reg 1 $ clk $end
$var reg 1 % io_output_en $end
$var reg 1 & is_running $end
$var reg 1 ' reset $end
$var integer 32 ( clk_count [31:0] $end
$scope module dut $end
$var wire 1 $ clk $end
$var wire 1 % io_output_en $end
$var wire 1 ' reset $end
$var wire 1 ) stall_id_if_pl $end
$var wire 1 * pc_stall_write $end
$var wire 32 + new_addr [31:0] $end
$var wire 32 , mem_read_data_ext [31:0] $end
$var wire 32 - mem_read_data [31:0] $end
$var wire 8 . io_output_data [7:0] $end
$var wire 32 / io_buffer_size_avai [31:0] $end
$var wire 32 0 inst_addr [31:0] $end
$var wire 32 1 if_inst [31:0] $end
$var wire 32 2 id_rs2_data [31:0] $end
$var wire 32 3 id_rs1_data [31:0] $end
$var wire 4 4 id_regfile_write_width [3:0] $end
$var wire 1 5 id_regfile_write_en $end
$var wire 2 6 id_regfile_write_data [1:0] $end
$var wire 5 7 id_parse_rs2 [4:0] $end
$var wire 5 8 id_parse_rs1 [4:0] $end
$var wire 5 9 id_parse_rd [4:0] $end
$var wire 32 : id_imm [31:0] $end
$var wire 4 ; id_datamem_write_width [3:0] $end
$var wire 1 < id_datamem_write_en $end
$var wire 1 = id_alu_src $end
$var wire 4 > id_alu_cmd [3:0] $end
$var wire 1 ? id_add_4_pc $end
$var wire 1 # halt $end
$var wire 1 @ final_pc_stall_write $end
$var wire 7 A ex_opcode [6:0] $end
$var wire 3 B ex_funct3 [2:0] $end
$var wire 32 C ex_final_rs2 [31:0] $end
$var wire 1 D chg_addr $end
$var wire 32 E alu_result [31:0] $end
$var parameter 32 F INST_START_ADDR $end
$var parameter 32 G REG_NUMBER $end
$var parameter 64 H WORD_WIDTH_IN_BIT $end
$var parameter 32 I WORD_WIDTH_IN_BYTE $end
$var reg 32 J ex_calculated_pc [31:0] $end
$var reg 32 K ex_mem_pl_alu_result [31:0] $end
$var reg 1 L ex_mem_pl_datamem_write_en $end
$var reg 4 M ex_mem_pl_datamem_write_width [3:0] $end
$var reg 32 N ex_mem_pl_ex_calculated_pc [31:0] $end
$var reg 3 O ex_mem_pl_funct3 [2:0] $end
$var reg 32 P ex_mem_pl_imm [31:0] $end
$var reg 5 Q ex_mem_pl_parse_rd [4:0] $end
$var reg 2 R ex_mem_pl_regfile_write_data [1:0] $end
$var reg 1 S ex_mem_pl_regfile_write_en $end
$var reg 4 T ex_mem_pl_regfile_write_width [3:0] $end
$var reg 32 U ex_mem_pl_rs2_data [31:0] $end
$var reg 1 V id_ex_pl_add_4_pc $end
$var reg 4 W id_ex_pl_alu_cmd [3:0] $end
$var reg 1 X id_ex_pl_alu_src $end
$var reg 1 Y id_ex_pl_datamem_write_en $end
$var reg 4 Z id_ex_pl_datamem_write_width [3:0] $end
$var reg 32 [ id_ex_pl_imm [31:0] $end
$var reg 32 \ id_ex_pl_inst [31:0] $end
$var reg 5 ] id_ex_pl_parse_rd [4:0] $end
$var reg 5 ^ id_ex_pl_parse_rs1 [4:0] $end
$var reg 5 _ id_ex_pl_parse_rs2 [4:0] $end
$var reg 32 ` id_ex_pl_pc [31:0] $end
$var reg 2 a id_ex_pl_regfile_write_data [1:0] $end
$var reg 1 b id_ex_pl_regfile_write_en $end
$var reg 4 c id_ex_pl_regfile_write_width [3:0] $end
$var reg 32 d id_ex_pl_rs1_data [31:0] $end
$var reg 32 e id_ex_pl_rs2_data [31:0] $end
$var reg 32 f if_id_pl_inst [31:0] $end
$var reg 32 g if_id_pl_pc [31:0] $end
$var reg 32 h mem_wb_pl_alu_result [31:0] $end
$var reg 32 i mem_wb_pl_ex_calculated_pc [31:0] $end
$var reg 32 j mem_wb_pl_imm [31:0] $end
$var reg 5 k mem_wb_pl_parse_rd [4:0] $end
$var reg 32 l mem_wb_pl_read_data_ext [31:0] $end
$var reg 2 m mem_wb_pl_regfile_write_data [1:0] $end
$var reg 1 n mem_wb_pl_regfile_write_en $end
$var reg 4 o mem_wb_pl_regfile_write_width [3:0] $end
$var reg 32 p pc [31:0] $end
$var reg 32 q wb_write_data [31:0] $end
$scope module alu_instance $end
$var wire 4 r alu_cmd [3:0] $end
$var wire 32 s rs1 [31:0] $end
$var wire 32 t rs2 [31:0] $end
$var parameter 64 u REG_WIDTH $end
$var reg 32 v out [31:0] $end
$upscope $end
$scope module ctrl_sig_gen_instance $end
$var wire 32 w inst [31:0] $end
$var wire 7 x opcode [6:0] $end
$var wire 1 y funct7_important $end
$var wire 3 z funct3 [2:0] $end
$var reg 1 ? add_4_pc $end
$var reg 4 { alu_cmd [3:0] $end
$var reg 1 = alu_src $end
$var reg 1 < datamem_write_en $end
$var reg 4 | datamem_write_width [3:0] $end
$var reg 2 } regfile_write_data [1:0] $end
$var reg 1 5 regfile_write_en $end
$var reg 4 ~ regfile_write_width [3:0] $end
$scope function alu_cmd_from_funct3_funct7 $end
$var reg 3 !" funct3 [2:0] $end
$var reg 1 "" funct7 $end
$var reg 1 #" is_imm_inst $end
$upscope $end
$scope function load_store_width_or_type_from_funct3 $end
$var reg 3 $" funct3 [2:0] $end
$upscope $end
$upscope $end
$scope module immediate_gen_instance $end
$var wire 32 %" inst [31:0] $end
$var wire 7 &" opcode [6:0] $end
$var reg 32 '" immediate [31:0] $end
$upscope $end
$scope module jump_branch_calculate_instance $end
$var wire 3 (" funct3 [2:0] $end
$var wire 32 )" imm [31:0] $end
$var wire 7 *" opcode [6:0] $end
$var wire 32 +" pc [31:0] $end
$var wire 32 ," rs1 [31:0] $end
$var wire 32 -" rs2 [31:0] $end
$var parameter 64 ." ADDR_WIDTH_IN_BIT $end
$var reg 1 D change_addr_enable $end
$var reg 32 /" new_addr [31:0] $end
$upscope $end
$scope module load_extend_instance $end
$var wire 3 0" funct3 [2:0] $end
$var wire 4 1" write_width [3:0] $end
$var wire 32 2" read_data [31:0] $end
$var parameter 64 3" REG_WIDTH_IN_BIT $end
$var parameter 32 4" REG_WIDTH_IN_BYTE $end
$var reg 32 5" read_data_ext [31:0] $end
$upscope $end
$scope module orchestrator_instance $end
$var wire 1 $ clk $end
$var wire 32 6" curr_inst [31:0] $end
$var wire 1 # halt $end
$var wire 1 7" pl_branch_stall $end
$var wire 1 8" pl_jump_stall $end
$var wire 1 9" pl_load_stall $end
$var wire 32 :" prev_inst [31:0] $end
$var wire 1 ' reset $end
$var wire 1 ) stall_id_if_pl $end
$var wire 1 * stall_pc_increment $end
$var wire 5 ;" rs2_next_inst [4:0] $end
$var wire 5 <" rs1_next_inst [4:0] $end
$var wire 5 =" rd_prev_inst [4:0] $end
$var wire 5 >" rd_curr_inst [4:0] $end
$var wire 7 ?" opcode_prev_inst [6:0] $end
$var wire 7 @" opcode_next_inst [6:0] $end
$var wire 7 A" opcode_curr_inst [6:0] $end
$var wire 32 B" next_inst [31:0] $end
$var parameter 64 C" INST_WIDTH_IN_BIT $end
$var reg 2 D" clk_till_halt [1:0] $end
$var reg 1 E" halt_state $end
$var reg 1 F" pl_rd_dep_stall $end
$scope function have_rd_dep_need_stall $end
$var reg 7 G" next_opcode [6:0] $end
$var reg 5 H" next_rs1 [4:0] $end
$var reg 5 I" next_rs2 [4:0] $end
$var reg 7 J" sus_opcode [6:0] $end
$var reg 5 K" sus_rd [4:0] $end
$upscope $end
$scope function is_change_rd_inst $end
$var reg 7 L" opcode [6:0] $end
$upscope $end
$upscope $end
$scope module register_file_instance $end
$var wire 1 $ clk $end
$var wire 5 M" read_reg1_addr [4:0] $end
$var wire 5 N" read_reg2_addr [4:0] $end
$var wire 1 ' reset $end
$var wire 32 O" write_data [31:0] $end
$var wire 1 n write_enable $end
$var wire 5 P" write_reg_addr [4:0] $end
$var wire 4 Q" write_width [3:0] $end
$var parameter 32 R" REG_ADDR_WIDTH $end
$var parameter 32 S" REG_NUMBER $end
$var parameter 64 T" REG_WIDTH_IN_BIT $end
$var parameter 32 U" REG_WIDTH_IN_BYTE $end
$var reg 32 V" read_reg1_data [31:0] $end
$var reg 32 W" read_reg2_data [31:0] $end
$var integer 32 X" i [31:0] $end
$upscope $end
$scope module unified_memory_instance $end
$var wire 32 Y" addr_read_0 [31:0] $end
$var wire 32 Z" addr_read_1 [31:0] $end
$var wire 32 [" addr_write [31:0] $end
$var wire 1 $ clk $end
$var wire 1 % io_output_en $end
$var wire 1 ' reset $end
$var wire 32 \" write_data [31:0] $end
$var wire 1 L write_en $end
$var wire 4 ]" write_width [3:0] $end
$var wire 32 ^" read_data_1_mem [31:0] $end
$var wire 32 _" read_data_0_mem [31:0] $end
$var wire 8 `" io_output_data [7:0] $end
$var wire 32 a" io_buffer_size_avai [31:0] $end
$var parameter 64 b" MEMORY_DEPTH_IN_BYTE $end
$var parameter 32 c" MEMORY_DEPTH_IN_WORD $end
$var parameter 64 d" MEMORY_WIDTH_IN_BIT $end
$var parameter 32 e" MEMORY_WIDTH_IN_BYTE $end
$var parameter 32 f" OUTPUT_BUFFER_BYTE_SIZE $end
$var reg 32 g" read_data_0 [31:0] $end
$var reg 32 h" read_data_1 [31:0] $end
$scope module io_output_buffer $end
$var wire 5 i" buffer_size_avai [4:0] $end
$var wire 1 $ clk $end
$var wire 8 j" input_data [7:0] $end
$var wire 1 k" input_en $end
$var wire 8 l" output_data [7:0] $end
$var wire 1 % output_en $end
$var wire 1 ' reset $end
$var parameter 32 m" BUFFER_ADDR_SIZE $end
$var parameter 32 n" BUFFER_BYTE_SIZE $end
$var reg 5 o" avai_count [4:0] $end
$var reg 5 p" read_addr [4:0] $end
$var reg 5 q" write_addr [4:0] $end
$var integer 32 r" i [31:0] $end
$upscope $end
$upscope $end
$upscope $end
$scope task dump_memory_to_file $end
$var reg 512 s" file_name [512:1] $end
$var reg 32 t" temp [31:0] $end
$var integer 32 u" fd [31:0] $end
$var integer 32 v" i [31:0] $end
$var integer 32 w" memory_byte_count [31:0] $end
$upscope $end
$scope task get_binary_file_name $end
$var reg 1 x" file_name_found $end
$var reg 512 y" file_name_out [512:1] $end
$upscope $end
$scope task get_final_state_memdump_file_name $end
$var reg 1 z" file_name_found $end
$var reg 512 {" file_name_out [512:1] $end
$upscope $end
$scope task get_final_state_regstat_file_name $end
$var reg 1 |" file_name_found $end
$var reg 512 }" file_name_out [512:1] $end
$upscope $end
$scope task invoke_reset $end
$var integer 32 ~" i [31:0] $end
$upscope $end
$scope task load_binary_into_hubris_mem $end
$var reg 512 !# file_name [512:1] $end
$upscope $end
$scope task load_memory $end
$var reg 512 "# file_name [512:1] $end
$var reg 1 ## file_name_found $end
$upscope $end
$scope task print_statistics $end
$upscope $end
$scope task report_hubris_internal_state $end
$var reg 512 $# file_name [512:1] $end
$var reg 1 %# file_name_found $end
$upscope $end
$scope task write_regstat_to_file $end
$var reg 512 &# file_name [512:1] $end
$var integer 32 '# fd [31:0] $end
$var integer 32 (# i [31:0] $end
$upscope $end
$scope task zero_memory $end
$var integer 32 )# i [31:0] $end
$var integer 32 *# memory_byte_count [31:0] $end
$upscope $end
$upscope $end
$enddefinitions $end
$comment Show the parameter values. $end
$dumpall
b100000 n"
b101 m"
b100000 f"
b100 e"
b100000 d"
b100000000000000000000 c"
b10000000000000000000000 b"
b100 U"
b100000 T"
b100000 S"
b101 R"
b100000 C"
b100 4"
b100000 3"
b100000 ."
b100000 u
b100 I
b100000 H
b100000 G
b0 F
$end
#0
$dumpvars
b10000000000000000000000 *#
b10000000000000000000000 )#
bx (#
bx '#
bx &#
x%#
bx $#
1##
b1100001011100110111001101100101011011010110001001101100011110010010111001101100011011110110000101100100 "#
b1100001011100110111001101100101011011010110001001101100011110010010111001101100011011110110000101100100 !#
b0 ~"
bx }"
x|"
bx {"
xz"
b1100001011100110111001101100101011011010110001001101100011110010010111001101100011011110110000101100100 y"
1x"
bx w"
bx v"
bx u"
bx t"
bx s"
bx r"
bx q"
bx p"
bx o"
bx l"
xk"
bx j"
bx i"
bx h"
bx g"
b0xxxxx a"
bx `"
bx _"
bx ^"
bx ]"
bx \"
bx ["
bx Z"
bx Y"
bx X"
bx W"
bx V"
bx Q"
bx P"
bx O"
bx N"
bx M"
bx L"
bx K"
bx J"
bx I"
bx H"
bx G"
xF"
xE"
bx D"
bx B"
bx A"
bx @"
bx ?"
bx >"
bx ="
bx <"
bx ;"
bx :"
x9"
x8"
x7"
bx 6"
bx 5"
bx 2"
bx 1"
bx 0"
bx /"
bx -"
bx ,"
bx +"
bx *"
bx )"
bx ("
bx '"
bx &"
bx %"
bx $"
x#"
x""
bx !"
bx ~
bx }
bx |
bx {
bx z
xy
bx x
bx w
bx v
bx t
bx s
bx r
bx q
bx p
bx o
xn
bx m
bx l
bx k
bx j
bx i
bx h
bx g
bx f
bx e
bx d
bx c
xb
bx a
bx `
bx _
bx ^
bx ]
bx \
bx [
bx Z
xY
xX
bx W
xV
bx U
bx T
xS
bx R
bx Q
bx P
bx O
bx N
bx M
xL
bx K
bx J
bx E
xD
bx C
bx B
bx A
x@
x?
bx >
x=
x<
bx ;
bx :
bx 9
bx 8
bx 7
bx 6
x5
bx 4
bx 3
bx 2
bx 1
bx 0
b0xxxxx /
bx .
bx -
bx ,
bx +
x*
x)
bx (
1'
x&
x%
0$
x#
b0xxxxx "
bx !
$end
#1
b10111 G"
b0 H"
b0 I"
b0 ;"
b0 <"
b10111 @"
0<
b0 6
b0 }
b100 4
b100 ~
15
0=
b0 >
b0 {
b0 !"
0""
1#"
bx L"
bx J"
bx K"
0F"
0%
0#
b0 2
b0 W"
b0 3
b0 V"
b10000000000000000000010100010111 1
b10000000000000000000010100010111 B"
b10000000000000000000010100010111 g"
b0 8
b0 M"
b0 7
b0 N"
b0 9
b10011 x
b0 z
0y
b0 :
b0 '"
b10011 &"
b10011 A"
b0 >"
b0 "
b0 /
b0 a"
b0 i"
b0 o"
b0 !
b0 .
b0 `"
b0 l"
b0 p"
b0 q"
0E"
b10 D"
b10000000000000000000010100010111 _"
b0 0
b0 p
b0 Y"
b10011 f
b10011 w
b10011 %"
b10011 6"
b100000 r"
b100000 X"
b1 ~"
1$
#2
0$
#3
0@
0*
0)
08"
09"
07"
b10011 L"
b10011 J"
b0 K"
0D
b0 E
b0 v
b0 C
b0 t
b10011 A
b10011 *"
b0 B
b0 ("
b10011 ?"
b0 ="
b0 e
b0 -"
b0 d
b0 s
b0 ,"
b0 ]
b0 _
b0 ^
0Y
b0 a
b100 c
1b
0X
b0 W
b0 r
b0 [
b0 )"
b10011 \
b10011 :"
b0 g
b10 ~"
b100000 X"
b100000 r"
1$
#4
0$
#5
b0 J
b0 j"
0k"
b0 `
b0 +"
b10000000000000000000010100010111 ^"
b0 K
b0 Z"
b0 ["
b0 U
b0 \"
b0 Q
0L
b0 R
b100 T
1S
b0 P
b0 O
b0 0"
b100000 r"
b100000 X"
b11 ~"
1$
#6
0$
#7
b0 q
b0 O"
b0 h
b0 k
b0 P"
b0 m
b100 o
b100 Q"
1n
b0 j
b0 N
b100 ~"
b100000 X"
b100000 r"
1$
#8
0'
0$
#9
1@
1*
1)
1F"
b10011 G"
b1010 H"
b100 I"
b100 ;"
b1010 <"
b10011 @"
0?
b11 6
b11 }
x=
bx >
bx {
b10111 L"
b10111 J"
b1010 K"
b10001010000010100010011 1
b10001010000010100010011 B"
b10001010000010100010011 g"
b1010 9
b10111 x
b10000000000000000000000000000000 :
b10000000000000000000000000000000 '"
b10111 &"
b10111 A"
b1010 >"
b10001010000010100010011 _"
b100 0
b100 p
b100 Y"
b10000000000000000000010100010111 f
b10000000000000000000010100010111 w
b10000000000000000000010100010111 %"
b10000000000000000000010100010111 6"
b0 i
b10 (
1&
1$
#10
0$
#11
x?
b0 6
b0 }
0=
b0 >
b0 {
b10111 L"
b10111 J"
b1010 K"
1F"
bx E
bx v
bx0000000000000000000000000000000 C
bx0000000000000000000000000000000 t
b10000000000000000000000000000000 J
b10111 A
b10111 *"
b10111 ?"
b1010 ="
b0 9
b10011 x
b0 :
b0 '"
b10011 &"
b10011 A"
b0 >"
b11 (
b1010 ]
0V
b11 a
xX
bx W
bx r
b10000000000000000000000000000000 [
b10000000000000000000000000000000 )"
b10000000000000000000010100010111 \
b10000000000000000000010100010111 :"
b10011 f
b10011 w
b10011 %"
b10011 6"
b100 g
1$
#12
0$
#13
0@
0*
0)
b10011 L"
b10011 J"
b0 K"
0F"
b0 E
b0 v
b0 C
b0 t
b10011 A
b10011 *"
b10011 ?"
b0 ="
b100 J
b0 ]
xV
b0 a
0X
b0 W
b0 r
b0 [
b0 )"
b10011 \
b10011 :"
b100 `
b100 +"
b10000000000000000000000000000000 N
bx ^"
bx K
bx Z"
bx ["
b1010 Q
b11 R
b10000000000000000000000000000000 P
b100 (
1$
#14
0$
#15
b0 K"
b0 H"
b10011 I"
b10011 ;"
b0 <"
b10000000000000000000000000000000 3
b10000000000000000000000000000000 V"
b10000000000000000000000000000000 q
b10000000000000000000000000000000 O"
b1010 8
b1010 M"
b100 7
b100 N"
b1010 9
b100 :
b100 '"
b1010 >"
b101001100000000010110010011 1
b101001100000000010110010011 B"
b101001100000000010110010011 g"
b101 (
b10000000000000000000000000000000 i
bx h
b1010 k
b1010 P"
b11 m
b10000000000000000000000000000000 j
b100 N
b10000000000000000000010100010111 ^"
b0 K
b0 Z"
b0 ["
b0 Q
b0 R
b0 P
b10001010000010100010011 f
b10001010000010100010011 w
b10001010000010100010011 %"
b10001010000010100010011 6"
b101001100000000010110010011 _"
b1000 0
b1000 p
b1000 Y"
1$
#16
0$
#17
b10100 I"
b10100 ;"
b0 3
b0 V"
b1010 K"
b101010000000000011000010011 1
b101010000000000011000010011 B"
b101010000000000011000010011 g"
b0 8
b0 M"
b10011 7
b10011 N"
b1011 9
b1010011 :
b1010011 '"
b1011 >"
b10000000000000000000000000000100 E
b10000000000000000000000000000100 v
b100 C
b100 t
b1000 J
b1010 ="
b0 q
b0 O"
b101010000000000011000010011 _"
b1100 0
b1100 p
b1100 Y"
b101001100000000010110010011 f
b101001100000000010110010011 w
b101001100000000010110010011 %"
b101001100000000010110010011 6"
b1000 g
b10000000000000000000000000000000 d
b10000000000000000000000000000000 s
b10000000000000000000000000000000 ,"
b1010 ]
b100 _
b1010 ^
b100 [
b100 )"
b10001010000010100010011 \
b10001010000010100010011 :"
b100 i
b0 h
b0 k
b0 P"
b0 m
b0 j
b110 (
1$
#18
0$
#19
b1011 K"
b1 I"
b1 ;"
b1010011 E
b1010011 v
b1010011 C
b1010011 t
b1011 ="
b1011011 J
b10100 7
b10100 N"
b1100 9
b1010100 :
b1010100 '"
b1100 >"
b100000100000000011010010011 1
b100000100000000011010010011 B"
b100000100000000011010010011 g"
b111 (
b1000 N
bx ^"
b10000000000000000000000000000100 K
b10000000000000000000000000000100 Z"
b10000000000000000000000000000100 ["
b1010 Q
b100 P
b0 d
b0 s
b0 ,"
b1011 ]
b10011 _
b0 ^
b1010011 [
b1010011 )"
b101001100000000010110010011 \
b101001100000000010110010011 :"
b1000 `
b1000 +"
b101010000000000011000010011 f
b101010000000000011000010011 w
b101010000000000011000010011 %"
b101010000000000011000010011 6"
b1100 g
b100000100000000011010010011 _"
b10000 0
b10000 p
b10000 Y"
1$
#20
0$
#21
b10010 I"
b10010 ;"
b1010100 E
b1010100 v
b1100 K"
b101001000000000011100010011 1
b101001000000000011100010011 B"
b101001000000000011100010011 g"
b1 7
b1 N"
b1101 9
b1000001 :
b1000001 '"
b1101 >"
b1010100 C
b1010100 t
b1100 ="
b1100000 J
b10000000000000000000000000000100 q
b10000000000000000000000000000100 O"
b101001000000000011100010011 _"
b10100 0
b10100 p
b10100 Y"
b100000100000000011010010011 f
b100000100000000011010010011 w
b100000100000000011010010011 %"
b100000100000000011010010011 6"
b10000 g
b1100 ]
b10100 _
b1010100 [
b1010100 )"
b101010000000000011000010011 \
b101010000000000011000010011 :"
b1100 `
b1100 +"
b1011011 N
b11100101001000000010001100000000 ^"
b1010011 K
b1010011 Z"
b1010011 ["
b1011 Q
b1010011 P
b1000 i
b10000000000000000000000000000100 h
b1010 k
b1010 P"
b100 j
b1000 (
1$
#22
0$
#23
b1000001 E
b1000001 v
b1101 K"
b1010 I"
b1010 ;"
b1010011 q
b1010011 O"
b1000001 C
b1000001 t
b1101 ="
b1010001 J
b10010 7
b10010 N"
b1110 9
b1010010 :
b1010010 '"
b1110 >"
b101000000000011110010011 1
b101000000000011110010011 B"
b101000000000011110010011 g"
b1001 (
b1011011 i
b1010011 h
b1011 k
b1011 P"
b1010011 j
b1100000 N
b111001010010000000100011 ^"
b1010100 K
b1010100 Z"
b1010100 ["
b1100 Q
b1010100 P
b1101 ]
b1 _
b1000001 [
b1000001 )"
b100000100000000011010010011 \
b100000100000000011010010011 :"
b10000 `
b10000 +"
b101001000000000011100010011 f
b101001000000000011100010011 w
b101001000000000011100010011 %"
b101001000000000011100010011 6"
b10100 g
b101000000000011110010011 _"
b11000 0
b11000 p
b11000 Y"
1$
#24
0$
#25
b100011 G"
b1010 H"
b1011 I"
b1011 ;"
b1010 <"
b100011 @"
b10000000000000000000000000000100 2
b10000000000000000000000000000100 W"
b1010010 E
b1010010 v
b1110 K"
b101101010010000000100011 1
b101101010010000000100011 B"
b101101010010000000100011 g"
b1010 7
b1010 N"
b1111 9
b1010 :
b1010 '"
b1111 >"
b1010010 C
b1010010 t
b1110 ="
b1100110 J
b1010100 q
b1010100 O"
b101101010010000000100011 _"
b11100 0
b11100 p
b11100 Y"
b101000000000011110010011 f
b101000000000011110010011 w
b101000000000011110010011 %"
b101000000000011110010011 6"
b11000 g
b1110 ]
b10010 _
b1010010 [
b1010010 )"
b101001000000000011100010011 \
b101001000000000011100010011 :"
b10100 `
b10100 +"
b1010001 N
b10010011000001000101000000000111 ^"
b1000001 K
b1000001 Z"
b1000001 ["
b1101 Q
b1000001 P
b1100000 i
b1010100 h
b1100 k
b1100 P"
b1010100 j
b1010 (
1$
#26
0$
#27
b1010 E
b1010 v
b1010011 2
b1010011 W"
b10000000000000000000000000000100 3
b10000000000000000000000000000100 V"
b100 ;
b100 |
b10 $"
1<
bx 6
bx }
bx 4
bx ~
05
b10011 L"
b10011 J"
b1111 K"
b1100 I"
b1100 ;"
b1000001 q
b1000001 O"
b1010 C
b1010 t
b1111 ="
b100010 J
b1010 8
b1010 M"
b1011 7
b1011 N"
b0 9
b100011 x
b10 z
b0 :
b0 '"
b100011 &"
b100011 A"
b0 >"
b110001010010000000100011 1
b110001010010000000100011 B"
b110001010010000000100011 g"
b1011 (
b1010001 i
b1000001 h
b1101 k
b1101 P"
b1000001 j
b1100110 N
b100000001000110000000011010101 ^"
b1010010 K
b1010010 Z"
b1010010 ["
b1110 Q
b1010010 P
b10000000000000000000000000000100 e
b10000000000000000000000000000100 -"
b1111 ]
b1010 _
b1010 [
b1010 )"
b101000000000011110010011 \
b101000000000011110010011 :"
b11000 `
b11000 +"
b101101010010000000100011 f
b101101010010000000100011 w
b101101010010000000100011 %"
b101101010010000000100011 6"
b11100 g
b110001010010000000100011 _"
b100000 0
b100000 p
b100000 Y"
1$
#28
0$
#29
b1101 I"
b1101 ;"
b1010100 2
b1010100 W"
b100011 L"
b100011 J"
b0 K"
b110101010010000000100011 1
b110101010010000000100011 B"
b110101010010000000100011 g"
b1100 7
b1100 N"
b10000000000000000000000000000100 E
b10000000000000000000000000000100 v
b0 C
b0 t
b100011 A
b100011 *"
b10 B
b10 ("
b100011 ?"
b0 ="
b11100 J
b100 j"
b1010010 q
b1010010 O"
b110101010010000000100011 _"
b100100 0
b100100 p
b100100 Y"
b110001010010000000100011 f
b110001010010000000100011 w
b110001010010000000100011 %"
b110001010010000000100011 6"
b100000 g
b1010011 e
b1010011 -"
b10000000000000000000000000000100 d
b10000000000000000000000000000100 s
b10000000000000000000000000000100 ,"
b0 ]
b1011 _
b1010 ^
b100 Z
1Y
bx a
bx c
0b
b0 [
b0 )"
b101101010010000000100011 \
b101101010010000000100011 :"
b11100 `
b11100 +"
b100010 N
b110000100110000010100110000 ^"
b1010 K
b1010 Z"
b1010 ["
b10000000000000000000000000000100 U
b10000000000000000000000000000100 \"
b1111 Q
b1010 P
b1100110 i
b1010010 h
b1110 k
b1110 P"
b1010010 j
b1100 (
1$
#30
0$
#31
b1110 I"
b1000001 2
b1000001 W"
b1110 ;"
b1010 q
b1010 O"
b1010011 j"
1k"
b100000 J
b1101 7
b1101 N"
b111001010010000000100011 1
b111001010010000000100011 B"
b111001010010000000100011 g"
b1101 (
b100010 i
b1010 h
b1111 k
b1111 P"
b1010 j
b11100 N
bx ^"
b10000000000000000000000000000100 K
b10000000000000000000000000000100 Z"
b10000000000000000000000000000100 ["
b1010011 U
b1010011 \"
b0 Q
b100 M
b100 1"
b100 ]"
1L
bx R
bx T
0S
b0 P
b10 O
b10 0"
b1010100 e
b1010100 -"
b1100 _
b110001010010000000100011 \
b110001010010000000100011 :"
b100000 `
b100000 +"
b110101010010000000100011 f
b110101010010000000100011 w
b110101010010000000100011 %"
b110101010010000000100011 6"
b100100 g
b111001010010000000100011 _"
b101000 0
b101000 p
b101000 Y"
1$
#32
0$
#33
b1100 I"
b1100 ;"
b1010010 2
b1010010 W"
1%
b110001010010000000100011 1
b110001010010000000100011 B"
b110001010010000000100011 g"
b1110 7
b1110 N"
b100100 J
b1010100 j"
bx q
bx O"
b1 q"
b1 "
b1 /
b1 a"
b1 i"
b1 o"
b1010011 !
b1010011 .
b1010011 `"
b1010011 l"
b110001010010000000100011 _"
b101100 0
b101100 p
b101100 Y"
b111001010010000000100011 f
b111001010010000000100011 w
b111001010010000000100011 %"
b111001010010000000100011 6"
b101000 g
b1000001 e
b1000001 -"
b1101 _
b110101010010000000100011 \
b110101010010000000100011 :"
b100100 `
b100100 +"
b100000 N
b1010100 U
b1010100 \"
b11100 i
b10000000000000000000000000000100 h
b0 k
b0 P"
bx m
bx o
bx Q"
0n
b0 j
b1110 (
1$
#34
0$
#35
b1111 I"
b1010100 2
b1010100 W"
b1111 ;"
b1000001 j"
b101000 J
b1100 7
b1100 N"
b111101010010000000100011 1
b111101010010000000100011 B"
b111101010010000000100011 g"
b1111 (
b100000 i
b100100 N
b1000001 U
b1000001 \"
b1010010 e
b1010010 -"
b1110 _
b111001010010000000100011 \
b111001010010000000100011 :"
b101000 `
b101000 +"
b110001010010000000100011 f
b110001010010000000100011 w
b110001010010000000100011 %"
b110001010010000000100011 6"
b101100 g
b111101010010000000100011 _"
b110000 0
b110000 p
b110000 Y"
b10 q"
b1010100 !
b1010100 .
b1010100 `"
b1010100 l"
b1 p"
1$
#36
0$
#37
b10011 G"
b0 H"
b100 I"
b100 ;"
b0 <"
b10011 @"
b1010 2
b1010 W"
b100010000000000010110010011 1
b100010000000000010110010011 B"
b100010000000000010110010011 g"
b1111 7
b1111 N"
b101100 J
b1010010 j"
b11 q"
b1000001 !
b1000001 .
b1000001 `"
b1000001 l"
b10 p"
b100010000000000010110010011 _"
b110100 0
b110100 p
b110100 Y"
b111101010010000000100011 f
b111101010010000000100011 w
b111101010010000000100011 %"
b111101010010000000100011 6"
b110000 g
b1010100 e
b1010100 -"
b1100 _
b110001010010000000100011 \
b110001010010000000100011 :"
b101100 `
b101100 +"
b101000 N
b1010010 U
b1010010 \"
b100100 i
b10000 (
1$
#38
0$
#39
b0 2
b0 W"
b0 3
b0 V"
bx ;
bx |
0<
b0 6
b0 }
b100 4
b100 ~
15
b100011 L"
b100011 J"
b0 K"
b1111 I"
b1111 ;"
b1010100 j"
b110000 J
b0 8
b0 M"
b100 7
b100 N"
b1011 9
b10011 x
b0 z
b1000100 :
b1000100 '"
b10011 &"
b10011 A"
b1011 >"
b100111100000000011000010011 1
b100111100000000011000010011 B"
b100111100000000011000010011 g"
b10001 (
b101000 i
b101100 N
b1010100 U
b1010100 \"
b1010 e
b1010 -"
b1111 _
b111101010010000000100011 \
b111101010010000000100011 :"
b110000 `
b110000 +"
b100010000000000010110010011 f
b100010000000000010110010011 w
b100010000000000010110010011 %"
b100010000000000010110010011 6"
b110100 g
b100111100000000011000010011 _"
b111000 0
b111000 p
b111000 Y"
b100 q"
b1010010 !
b1010010 .
b1010010 `"
b1010010 l"
b11 p"
1$
#40
0$
#41
b1110 I"
b1110 ;"
b1010 2
b1010 W"
b10011 L"
b10011 J"
b1011 K"
b100111000000000011010010011 1
b100111000000000011010010011 B"
b100111000000000011010010011 g"
b1111 7
b1111 N"
b1100 9
b1001111 :
b1001111 '"
b1100 >"
b1000100 E
b1000100 v
b1000100 C
b1000100 t
b10011 A
b10011 *"
b0 B
b0 ("
b10011 ?"
b1011 ="
b1111000 J
b1010 j"
b101 q"
b1010100 !
b1010100 .
b1010100 `"
b1010100 l"
b100 p"
b100111000000000011010010011 _"
b111100 0
b111100 p
b111100 Y"
b100111100000000011000010011 f
b100111100000000011000010011 w
b100111100000000011000010011 %"
b100111100000000011000010011 6"
b111000 g
b0 e
b0 -"
b0 d
b0 s
b0 ,"
b1011 ]
b100 _
b0 ^
bx Z
0Y
b0 a
b100 c
1b
b1000100 [
b1000100 )"
b100010000000000010110010011 \
b100010000000000010110010011 :"
b110100 `
b110100 +"
b110000 N
b1010 U
b1010 \"
b101100 i
b10010 (
1$
#42
0$
